{
	"dimensions":[
		{
			"dimension":"-1",
			"__comment":"dimension 0 for overworld, -1 for the nether, 1 for the end, other numbers for dimensions added by other mods, and + for any dimension not already described by this file.",
			"ores":[
				{
					"blockID":"nethermetals:nether_copper_ore",
					"size":8,
					"variation":12,
					"frequency":20,
					"minHeight":0,
					"maxHeight":96
				},
				{
					"blockID":"nethermetals:nether_lead_ore",
					"size":8,
					"variation":12,
					"frequency":20,
					"minHeight":0,
					"maxHeight":96
				},
				{
					"blockID":"nethermetals:nether_mercury_ore",
					"size":8,
					"variation":4,
					"frequency":10,
					"minHeight":0,
					"maxHeight":32
				},
				{
					"blockID":"nethermetals:nether_nickel_ore",
					"size":8,
					"variation":4,
					"frequency":10,
					"minHeight":0,
					"maxHeight":96
				},
				{
					"blockID":"nethermetals:nether_platinum_ore",
					"size":8,
					"variation":4,
					"frequency":10,
					"minHeight":0,
					"maxHeight":32
				},
				{
					"blockID":"nethermetals:nether_silver_ore",
					"size":8,
					"variation":8,
					"frequency":10,
					"minHeight":0,
					"maxHeight":32
				},
				{
					"blockID":"nethermetals:nether_tin_ore",
					"size":8,
					"variation":12,
					"frequency":20,
					"minHeight":0,
					"maxHeight":96
				},
				{
					"blockID":"nethermetals:nether_zinc_ore",
					"size":8,
					"variation":8,
					"frequency":12,
					"minHeight":0,
					"maxHeight":96
				}
			]
		}
	]
}
